Training accuracy;Training loss;Validation accuracy;Validation loss
0.13074;1.064801477346386;0.13;1.069395705283619
0.12208;1.0234361627072082;0.1223;1.025787773056669
0.12194;1.0140748291231698;0.1228;1.0148589318929524
0.12172;1.009580036030179;0.1216;1.0100629915710324
0.12214;1.0072365891191148;0.1224;1.0075527137961104
0.1234;1.0058384608307096;0.124;1.005959081830549
0.12446;1.0048000640037602;0.1249;1.00470318707619
0.12542;1.003951737948696;0.1266;1.0036697805044672
0.12608;1.0032315597117;0.1273;1.002843398858587
0.12692;1.002611197459837;0.129;1.0022194589768716
0.1281;1.0020827372134702;0.1298;1.0017461648794352
0.12886;1.0016179084211223;0.1304;1.0013554621311833
0.13038;1.001219075848228;0.1311;1.0010119985414065
0.13228;1.0008775526662637;0.133;1.0006931870608842
0.13372;1.0005701072088267;0.1347;1.000376356443765
0.13568;1.0002723567521534;0.1365;1.000041547263025
0.13802;0.999950996235313;0.1385;0.9996584757792518
0.1408;0.9995761759304574;0.1403;0.999188197891353
0.14336;0.9991377632408683;0.1432;0.9986300966567471
0.1465;0.9986200959813796;0.1461;0.9980062578690253
0.15098;0.9979929526381004;0.1495;0.9973208395715326
0.15474;0.9972381265060488;0.1539;0.9966258080702548
0.1597;0.9962542370512695;0.1583;0.9956901792219649
0.16662;0.9941516001111355;0.1658;0.9929833650365814
0.1753;0.9899195850121237;0.1713;0.9878964733002557
0.1826;0.9809304287620761;0.1775;0.9793510981131219
0.1848;0.9730761771633644;0.1811;0.9720000641543863
0.18696;0.968775531580135;0.1854;0.9672800924265194
0.18826;0.9646500165933078;0.1881;0.9631345542749539
0.19032;0.9607639655011143;0.1897;0.9600127047032729
0.19178;0.9569044140954794;0.1911;0.9564752569874043
0.19254;0.9520908960751604;0.1929;0.9519916895686991
0.19358;0.9457157130671027;0.1943;0.9455705248101133
0.19498;0.938402701968475;0.1948;0.939803000497911
0.1967;0.9308038783240251;0.1963;0.9332257955739577
0.19826;0.924561033785553;0.1984;0.9279022063939186
0.20044;0.9195710669436153;0.1998;0.9237789711230422
0.20242;0.915685706026671;0.2018;0.9200668988685055
0.20456;0.9121417904794072;0.2034;0.9165204599641101
0.20624;0.9087559004564788;0.2066;0.9132399664453599
0.2084;0.9052894687715586;0.2098;0.9098092025704698
0.21084;0.9009168978723707;0.2116;0.9052365367327724
0.21302;0.8957703613802773;0.2143;0.9000945541236635
0.21606;0.8882644368369303;0.2168;0.8911039268481851
0.21894;0.8808213060660157;0.2204;0.8821566047542808
0.22094;0.8754095491483505;0.2222;0.8762263538785199
0.22294;0.8705704186007105;0.224;0.8714865800103291
0.22452;0.8668690813030164;0.2253;0.8673681525168244
0.22582;0.8635727541899046;0.2265;0.8634715845731349
0.22716;0.8605908075250304;0.2274;0.8609516719278161
