Training accuracy;Training loss;Validation accuracy;Validation loss
0.26982;0.9998804047080434;0.2883;0.9950087715220166
0.36516;0.9076069119713367;0.3883;0.9012937318404329
0.43298;0.877955751836886;0.4581;0.8710221207660624
0.46908;0.8606410029251099;0.4961;0.8532380423934068
0.48682;0.8465596268215984;0.5104;0.8387073405972918
0.49692;0.8332779512850157;0.5211;0.8249785476821966
0.50472;0.8201032609460313;0.5271;0.8113678836873802
0.51308;0.8069358258717849;0.5366;0.7977841944681271
0.52302;0.7938474570676358;0.5449;0.7842948136472023
0.53428;0.78092271887575;0.5553;0.7709810926775833
0.54708;0.7682247305837023;0.5691;0.757902187635184
0.55858;0.7557882312886576;0.5824;0.7450869917633148
0.57056;0.7436317822963161;0.5956;0.7325547982436871
0.58138;0.731773734487664;0.6066;0.7203279892794628
0.59304;0.7202334196596452;0.6192;0.7084215531676945
0.60392;0.7090219942327491;0.6292;0.6968509873302667
0.61384;0.6981527271602924;0.6407;0.6856318367071785
0.62354;0.6876299644899986;0.6487;0.6747680807552914
0.63298;0.6774596511291631;0.6581;0.664266952437185
0.64224;0.6676420376971447;0.6665;0.6541263896415713
0.6508;0.658174208752493;0.6747;0.6443443777276824
0.65946;0.6490530636806576;0.6825;0.6349178840037936
0.66676;0.6402723549718203;0.6912;0.6258399468627769
0.67474;0.6318197003140161;0.6995;0.6170984716957478
0.68208;0.6236857631740462;0.7074;0.6086837147674165
0.68882;0.615858527730135;0.7154;0.600583115193875
0.69564;0.6083251830161498;0.7226;0.5927846199228662
0.7017;0.6010713472951771;0.7279;0.5852736877883131
0.70784;0.5940843001582642;0.734;0.5780381255299046
0.71288;0.5873528372115646;0.74;0.5710659712801331
0.7178;0.580865597501136;0.7454;0.5643459930668726
0.72256;0.574611133120899;0.7512;0.55786482946727
0.72678;0.5685783098360173;0.755;0.5516120411821652
0.73128;0.5627558396339938;0.7591;0.5455764525743736
0.73538;0.5571333343179224;0.7631;0.5397484225227428
0.73938;0.551699848437921;0.767;0.5341168229434055
0.7435;0.5464460670168825;0.7701;0.5286723394570236
0.74664;0.5413630908875177;0.7737;0.5234052923487491
0.74988;0.5364436102756875;0.7774;0.5183077488512653
0.7529;0.5316794795452666;0.781;0.5133715684701752
0.7558;0.5270624097096852;0.7835;0.5085893858683862
0.75852;0.5225862462927737;0.7865;0.5039546833876674
0.76138;0.5182439079994628;0.7882;0.49945933769944095
0.76392;0.5140309585269369;0.7905;0.4950976605643597
0.76644;0.5099415131112011;0.7938;0.49086409114275364
0.7686;0.5059694582082431;0.7955;0.4867532799011284
0.77112;0.5021095388634178;0.7981;0.4827601671759533
0.77268;0.4983577017928399;0.8005;0.47888028782063546
0.77454;0.494708952740169;0.8021;0.47510832643718914
0.7769;0.491158840964939;0.8051;0.47143933979633773
