Training accuracy;Training loss;Validation accuracy;Validation loss
0.45876;0.7990232941832145;0.4661;0.791921307691103
0.62268;0.6616521384887648;0.6367;0.6503346699181914
0.71094;0.5555713436390183;0.7293;0.5407761986721471
0.77744;0.48434409356221253;0.8011;0.46647333106532723
0.81406;0.4330837052941088;0.8362;0.41274559188061205
0.83156;0.3940181691503754;0.8514;0.3721520780333108
0.8417;0.3637676637930948;0.8609;0.34106965503713416
0.84944;0.3399700687289557;0.8701;0.3168500825471215
0.85608;0.32083083666584583;0.8754;0.2975355464733501
0.86162;0.3050695878243369;0.8799;0.2817643919706196
0.86522;0.29183439016698376;0.8837;0.2686406108309199
0.86888;0.2805357652166512;0.8872;0.25753614872332853
0.87278;0.27075774160684546;0.8899;0.2480045887377455
0.87578;0.2622065429960925;0.8919;0.2397266345572652
0.8786;0.2546492474187163;0.8932;0.23245699368525935
0.88098;0.24790470912732268;0.8953;0.22601417296884374
0.8835;0.24183375444587618;0.8964;0.22025096979672093
0.8856;0.23632091444555578;0.8982;0.2150505253182304
0.88718;0.23127766969257915;0.9004;0.21031965206024802
0.88882;0.22664138981238235;0.9023;0.20599048704817424
0.89028;0.22235700421021895;0.9034;0.20200524284465413
0.89146;0.21837850192467773;0.9048;0.198319893415568
0.89294;0.21466943208303696;0.9059;0.1948958034318817
0.8942;0.21119563860136178;0.9072;0.1917022223538403
0.89526;0.20792999070424853;0.9081;0.18870728550315313
0.89672;0.20484668328910838;0.9083;0.18588815603106612
0.8981;0.2019332272062719;0.9095;0.1832273353607009
0.89938;0.19917127734957976;0.9098;0.1807068106216328
0.90042;0.19654784578342124;0.9105;0.17831562495947
0.90102;0.19405004643976015;0.9115;0.17604278228828268
0.902;0.19166797039510572;0.9125;0.17387648248766382
0.90302;0.18939259160404803;0.9142;0.1718102646405781
0.90374;0.18721359775175345;0.9146;0.1698341875500222
0.90454;0.18512282310989334;0.9155;0.16794119091289325
0.90544;0.18311397580552988;0.916;0.16612398767771855
0.90642;0.18118225733106327;0.9173;0.16437488728814573
0.90756;0.17932302785155002;0.9174;0.1626937962884306
0.90828;0.17753196646864694;0.9184;0.16107498449204066
0.909;0.17580312820150898;0.9188;0.15951392748605886
0.90968;0.17413303676646422;0.9193;0.15800898917948528
0.91034;0.17251719613879454;0.9199;0.1565556628925649
0.91106;0.17095432934975138;0.9205;0.15514936846881816
0.91186;0.16944039636549488;0.9214;0.15378958436168177
0.91244;0.16797302223530122;0.9219;0.15247177757354108
0.91314;0.16654759125971885;0.9222;0.15119537952339449
0.91368;0.16516335658752246;0.923;0.14996101871201442
0.9144;0.16381927375609515;0.9233;0.14876448599811293
0.91504;0.16251149199226383;0.9239;0.14760216787635075
0.91562;0.16123864011132236;0.9243;0.14647402488077918
0.9161;0.16000013560094228;0.9245;0.1453786073204182
